{
    "AeroplaneDetails": [
        {
            "key": "E90",
            "value": "EMBRAER 190"
        },
        {
            "key": "100",
            "value": "FOKKER 100"
        },
        {
            "key": "310",
            "value": "AIRBUS INDUSTRIE A310"
        },
        {
            "key": "313",
            "value": "AIRBUS INDUSTRIE A310-300"
        },
        {
            "key": "318",
            "value": "AIRBUS INDUSTRIE A318"
        },
        {
            "key": "319",
            "value": "AIRBUS INDUSTRIE A319"
        },
        {
            "key": "320",
            "value": "AIRBUS INDUSTRIE A320-100/200"
        },
        {
            "key": "321",
            "value": "AIRBUS INDUSTRIE A321"
        },
        {
            "key": "32A",
            "value": "AIRBUS INDUSTRIE A320 SHARKLETS"
        },
        {
            "key": "32B",
            "value": "AIRBUS INDUSTRIE A321 SHARKLETS"
        },
        {
            "key": "32S",
            "value": "AIRBUS INDUSTRIE A318/A319/A320/A321"
        },
        {
            "key": "330",
            "value": "AIRBUS INDUSTRIE A330"
        },
        {
            "key": "332",
            "value": "AIRBUS INDUSTRIE A330-200"
        },
        {
            "key": "333",
            "value": "AIRBUS INDUSTRIE A330-300"
        },
        {
            "key": "340",
            "value": "AIRBUS INDUSTRIE A340"
        },
        {
            "key": "342",
            "value": "AIRBUS INDUSTRIE A340-200"
        },
        {
            "key": "343",
            "value": "AIRBUS INDUSTRIE A340-300"
        },
        {
            "key": "345",
            "value": "AIRBUS INDUSTRIE A340-500"
        },
        {
            "key": "346",
            "value": "AIRBUS INDUSTRIE A340-600"
        },
        {
            "key": "350",
            "value": "AIRBUS INDUSTRIE A350"
        },
        {
            "key": "359",
            "value": "AIRBUS INDUSTRIE A350-900"
        },
        {
            "key": "380",
            "value": "AIRBUS INDUSTRIE A380"
        },
        {
            "key": "388",
            "value": "AIRBUS INDUSTRIE A380-800"
        },
        {
            "key": "717",
            "value": "BOEING 717"
        },
        {
            "key": "733",
            "value": "BOEING 737-300"
        },
        {
            "key": "734",
            "value": "BOEING 737-400"
        },
        {
            "key": "735",
            "value": "BOEING 737-500"
        },
        {
            "key": "736",
            "value": "BOEING 737-600"
        },
        {
            "key": "737",
            "value": "BOEING 737 ALL SERIES PASSENGER"
        },
        {
            "key": "738",
            "value": "BOEING 737-800"
        },
        {
            "key": "739",
            "value": "BOEING 737-900"
        },
        {
            "key": "73G",
            "value": "BOEING 737-700"
        },
        {
            "key": "73H",
            "value": "BOEING 737-800 (WINGLETS)"
        },
        {
            "key": "73J",
            "value": "BOEING 737-900"
        },
        {
            "key": "73M",
            "value": "BOEING 737-200 MIXED CONFIGURATION"
        },
        {
            "key": "73Q",
            "value": "BOEING 737-400 MIXED CONFIGURATION"
        },
        {
            "key": "73R",
            "value": "BOEING 737-700 MIXED CONFIGURATION/BB JET"
        },
        {
            "key": "73W",
            "value": "BOEING 737-700 (WINGLETS)"
        },
        {
            "key": "744",
            "value": "BOEING 747-400"
        },
        {
            "key": "747",
            "value": "BOEING 747 ALL SERIES PASSENGER"
        },
        {
            "key": "74E",
            "value": "BOEING 747-400 MIXED CONFIGURATION"
        },
        {
            "key": "74H",
            "value": "BOEING 747-8I"
        },
        {
            "key": "74M",
            "value": "BOEING 747-200/300/400 MIX CONFIG"
        },
        {
            "key": "752",
            "value": "BOEING 757-200"
        },
        {
            "key": "753",
            "value": "BOEING 757-300"
        },
        {
            "key": "757",
            "value": "BOEING 757"
        },
        {
            "key": "75T",
            "value": "BOEING 757-300 WINGLETS"
        },
        {
            "key": "75W",
            "value": "BOEING 757-200"
        },
        {
            "key": "762",
            "value": "BOEING 767-200/200ER"
        },
        {
            "key": "763",
            "value": "BOEING 767-300/300ER"
        },
        {
            "key": "764",
            "value": "BOEING 767-400"
        },
        {
            "key": "767",
            "value": "BOEING 767"
        },
        {
            "key": "76W",
            "value": "BOEING 767-300"
        },
        {
            "key": "772",
            "value": "BOEING 777-200/200ER"
        },
        {
            "key": "773",
            "value": "BOEING 777-300"
        },
        {
            "key": "777",
            "value": "BOEING 777-200/300"
        },
        {
            "key": "77L",
            "value": "BOEING 777-200LR"
        },
        {
            "key": "77W",
            "value": "BOEING 777-300ER"
        },
        {
            "key": "787",
            "value": "787 ALL SERIES PASSENGER"
        },
        {
            "key": "788",
            "value": "BOEING 787-8"
        },
        {
            "key": "789",
            "value": "BOEING 787-9"
        },
        {
            "key": "7S8",
            "value": "BOEING 737-800 SCIMITAR WINGLETS"
        },
        {
            "key": "AR1",
            "value": "AVRO RJ100 AVROLINER"
        },
        {
            "key": "AR8",
            "value": "AVRO RJ85 AVROLINER"
        },
        {
            "key": "AT4",
            "value": "AEROSPATIALE/ALENIA ATR 42-300/320"
        },
        {
            "key": "AT5",
            "value": "AEROSPATIALE/ALENIA ATR42-500"
        },
        {
            "key": "AT7",
            "value": "AEROSPATIALE/ALENIA ATR 72"
        },
        {
            "key": "ATR",
            "value": "AEROSPATIALE/ALENIA ATR42/72"
        },
        {
            "key": "BE1",
            "value": "BEECHCRAFT 1900/1900C/1900D"
        },
        {
            "key": "BEH",
            "value": "BEECHCRAFT 1900D"
        },
        {
            "key": "BNI",
            "value": "PILATUS BRITTEN-NORMAN B ISLANDER"
        },
        {
            "key": "BUS",
            "value": "BUS"
        },
        {
            "key": "CNA",
            "value": "CESSNA (LIGHT AIRCRAFT)"
        },
        {
            "key": "CNC",
            "value": "CESSNA"
        },
        {
            "key": "CR1",
            "value": "CANADAIR REGIONAL JET 100"
        },
        {
            "key": "CR2",
            "value": "CANADAIR REGIONAL JET 200"
        },
        {
            "key": "CR7",
            "value": "CANADAIR REGIONAL JET 700"
        },
        {
            "key": "CR9",
            "value": "CANADAIR REGIONAL JET 900"
        },
        {
            "key": "CRA",
            "value": "CANADAIR CRJ SERIES 705"
        },
        {
            "key": "CRJ",
            "value": "CANADAIR REGIONAL JET"
        },
        {
            "key": "CRK",
            "value": "CANADAIR REGIONAL JET 1000"
        },
        {
            "key": "DH1",
            "value": "DE HAVILLAND DHC-8 100 SERIES"
        },
        {
            "key": "DH2",
            "value": "DE HAVILLAND DHC-8 200 SERIES"
        },
        {
            "key": "DH3",
            "value": "DE HAVILLAND DHC-8 SERIES 300"
        },
        {
            "key": "DH4",
            "value": "DE HAVILLAND DHC-8 400 SERIES"
        },
        {
            "key": "DH8",
            "value": "DE HAVILLAND DHC-8 DASH 8"
        },
        {
            "key": "DHT",
            "value": "DE HAVILLAND DHC-6 TWIN OTTER"
        },
        {
            "key": "E70",
            "value": "EMBRAER 170"
        },
        {
            "key": "E75",
            "value": "EMBRAER 175"
        },
        {
            "key": "E7W",
            "value": "EMBRAER 175 (ENHANCED WINGLETS)"
        },
        {
            "key": "E95",
            "value": "EMBRAER 195"
        },
        {
            "key": "EM2",
            "value": "EMBRAER EMB-120 BRASILIA"
        },
        {
            "key": "EMJ",
            "value": "EMBRAER RJ170/190"
        },
        {
            "key": "EQV",
            "value": "CHANGE OF EQUIPMENT - ALL CODES"
        },
        {
            "key": "ER3",
            "value": "EMBRAER RJ135"
        },
        {
            "key": "ER4",
            "value": "EMBRAER RJ145"
        },
        {
            "key": "ERD",
            "value": "EMBRAER RJ140"
        },
        {
            "key": "ERJ",
            "value": "EMBRAER RJ135/140/145"
        },
        {
            "key": "F50",
            "value": "FOKKER 50"
        },
        {
            "key": "F70",
            "value": "FOKKER 70"
        },
        {
            "key": "ICE",
            "value": "INTER-CITY EXPRESS"
        },
        {
            "key": "LMO",
            "value": "LIMOUSINE"
        },
        {
            "key": "M80",
            "value": "BOEING (DOUGLAS) MD-80 ALL SERIES"
        },
        {
            "key": "M82",
            "value": "BOEING (DOUGLAS) MD-82"
        },
        {
            "key": "M88",
            "value": "BOEING (DOUGLAS) MD-88"
        },
        {
            "key": "M90",
            "value": "BOEING (DOUGLAS) MD-90"
        },
        {
            "key": "PL2",
            "value": "PILATUS PC-12"
        },
        {
            "key": "S20",
            "value": "SAAB 2000"
        },
        {
            "key": "S80",
            "value": "MC DONNELL DOUGLAS SUPER 80"
        },
        {
            "key": "SF3",
            "value": "SAAB SF340A/340B"
        },
        {
            "key": "SU9",
            "value": "SUPERJET 100-95"
        },
        {
            "key": "SWM",
            "value": "FAIRCHILD(SWEARINGEN) METRO/MERLIN"
        },
        {
            "key": "TRN",
            "value": "TRAIN"
        }
    ]
}